{
  "itemList": [
    {
      "id": 11,
      "status": "Pending",
      "total": 168.57,
      "createdAt": "2023-01-12T00:00:00Z"
    },
    {
      "id": 12,
      "status": "Delivered",
      "total": 130.31,
      "createdAt": "2023-01-13T00:00:00Z"
    }
  ],
  "pagination": {
    "page": 3,
    "size": 12,
    "totalPages": 3,
    "totalItems": 12
  }
}
